00000010101000001011000000100000
00100010101101100000000000000101
10101110110101100000000000000001
10001110110101100000000000000001
00111100000101110000000000001000
00000000000101101010100001000011
00000000000101101010100001000010
00000010110000001010100000100010
00000010110101011010100000100100
00000010110101011010100000101010
00101010110101010000000000000111
00110010110101010000000000000110
00000010110101011010100000100101
00110110110101010000000000000110
00000010110101011010100000100111
00000000000101101010100010000000
00000000000101101010100010000010
